^C:\USERS\ALEX\SOURCE\REPOS\DATA_STRUCTURES_AND_ALGORITHM\LAB3\LAB3\BINTREE.CPP|C:\USERS\ALEX\SOURCE\REPOS\DATA_STRUCTURES_AND_ALGORITHM\LAB3\LAB3\MY_QUEUE.CPP
C:\USERS\ALEX\SOURCE\REPOS\DATA_STRUCTURES_AND_ALGORITHM\LAB3\LAB3\DEBUG\VC141.PDB
C:\USERS\ALEX\SOURCE\REPOS\DATA_STRUCTURES_AND_ALGORITHM\LAB3\LAB3\DEBUG\VC141.IDB
C:\USERS\ALEX\SOURCE\REPOS\DATA_STRUCTURES_AND_ALGORITHM\LAB3\LAB3\DEBUG\MY_QUEUE.OBJ
C:\USERS\ALEX\SOURCE\REPOS\DATA_STRUCTURES_AND_ALGORITHM\LAB3\LAB3\DEBUG\BINTREE.OBJ
^C:\USERS\ALEX\SOURCE\REPOS\DATA_STRUCTURES_AND_ALGORITHM\LAB3\LAB3\BINTREE.CPP|C:\USERS\ALEX\SOURCE\REPOS\DATA_STRUCTURES_AND_ALGORITHM\LAB3\LAB3\MY_QUEUE.CPP|C:\USERS\ALEX\SOURCE\REPOS\DATA_STRUCTURES_AND_ALGORITHM\LAB3\LAB3\SOURCE.CPP
C:\USERS\ALEX\SOURCE\REPOS\DATA_STRUCTURES_AND_ALGORITHM\LAB3\LAB3\DEBUG\VC141.PDB
C:\USERS\ALEX\SOURCE\REPOS\DATA_STRUCTURES_AND_ALGORITHM\LAB3\LAB3\DEBUG\VC141.IDB
C:\USERS\ALEX\SOURCE\REPOS\DATA_STRUCTURES_AND_ALGORITHM\LAB3\LAB3\DEBUG\MY_QUEUE.OBJ
C:\USERS\ALEX\SOURCE\REPOS\DATA_STRUCTURES_AND_ALGORITHM\LAB3\LAB3\DEBUG\BINTREE.OBJ
C:\USERS\ALEX\SOURCE\REPOS\DATA_STRUCTURES_AND_ALGORITHM\LAB3\LAB3\DEBUG\SOURCE.OBJ
^C:\USERS\ALEX\SOURCE\REPOS\DATA_STRUCTURES_AND_ALGORITHM\LAB3\LAB3\BINTREE.CPP|C:\USERS\ALEX\SOURCE\REPOS\DATA_STRUCTURES_AND_ALGORITHM\LAB3\LAB3\MY_STACK.CPP
C:\USERS\ALEX\SOURCE\REPOS\DATA_STRUCTURES_AND_ALGORITHM\LAB3\LAB3\DEBUG\VC141.PDB
C:\USERS\ALEX\SOURCE\REPOS\DATA_STRUCTURES_AND_ALGORITHM\LAB3\LAB3\DEBUG\VC141.IDB
C:\USERS\ALEX\SOURCE\REPOS\DATA_STRUCTURES_AND_ALGORITHM\LAB3\LAB3\DEBUG\MY_STACK.OBJ
^C:\USERS\ALEX\SOURCE\REPOS\DATA_STRUCTURES_AND_ALGORITHM\LAB3\LAB3\BINTREE.CPP|C:\USERS\ALEX\SOURCE\REPOS\DATA_STRUCTURES_AND_ALGORITHM\LAB3\LAB3\SOURCE.CPP
C:\USERS\ALEX\SOURCE\REPOS\DATA_STRUCTURES_AND_ALGORITHM\LAB3\LAB3\DEBUG\VC141.PDB
C:\USERS\ALEX\SOURCE\REPOS\DATA_STRUCTURES_AND_ALGORITHM\LAB3\LAB3\DEBUG\VC141.IDB
C:\USERS\ALEX\SOURCE\REPOS\DATA_STRUCTURES_AND_ALGORITHM\LAB3\LAB3\DEBUG\BINTREE.OBJ
C:\USERS\ALEX\SOURCE\REPOS\DATA_STRUCTURES_AND_ALGORITHM\LAB3\LAB3\DEBUG\SOURCE.OBJ
^C:\USERS\ALEX\SOURCE\REPOS\DATA_STRUCTURES_AND_ALGORITHM\LAB3\LAB3\BINTREE.CPP|C:\USERS\ALEX\SOURCE\REPOS\DATA_STRUCTURES_AND_ALGORITHM\LAB3\LAB3\MY_QUEUE.CPP|C:\USERS\ALEX\SOURCE\REPOS\DATA_STRUCTURES_AND_ALGORITHM\LAB3\LAB3\MY_STACK.CPP|C:\USERS\ALEX\SOURCE\REPOS\DATA_STRUCTURES_AND_ALGORITHM\LAB3\LAB3\SOURCE.CPP
C:\USERS\ALEX\SOURCE\REPOS\DATA_STRUCTURES_AND_ALGORITHM\LAB3\LAB3\DEBUG\VC141.PDB
C:\USERS\ALEX\SOURCE\REPOS\DATA_STRUCTURES_AND_ALGORITHM\LAB3\LAB3\DEBUG\VC141.IDB
C:\USERS\ALEX\SOURCE\REPOS\DATA_STRUCTURES_AND_ALGORITHM\LAB3\LAB3\DEBUG\SOURCE.OBJ
C:\USERS\ALEX\SOURCE\REPOS\DATA_STRUCTURES_AND_ALGORITHM\LAB3\LAB3\DEBUG\MY_STACK.OBJ
C:\USERS\ALEX\SOURCE\REPOS\DATA_STRUCTURES_AND_ALGORITHM\LAB3\LAB3\DEBUG\MY_QUEUE.OBJ
C:\USERS\ALEX\SOURCE\REPOS\DATA_STRUCTURES_AND_ALGORITHM\LAB3\LAB3\DEBUG\BINTREE.OBJ
^C:\USERS\ALEX\SOURCE\REPOS\DATA_STRUCTURES_AND_ALGORITHM\LAB3\LAB3\BINTREE.CPP
C:\USERS\ALEX\SOURCE\REPOS\DATA_STRUCTURES_AND_ALGORITHM\LAB3\LAB3\DEBUG\VC141.PDB
^C:\USERS\ALEX\SOURCE\REPOS\DATA_STRUCTURES_AND_ALGORITHM\LAB3\LAB3\MY_QUEUE.CPP
C:\USERS\ALEX\SOURCE\REPOS\DATA_STRUCTURES_AND_ALGORITHM\LAB3\LAB3\DEBUG\VC141.PDB
^C:\USERS\ALEX\SOURCE\REPOS\DATA_STRUCTURES_AND_ALGORITHM\LAB3\LAB3\MY_STACK.CPP
C:\USERS\ALEX\SOURCE\REPOS\DATA_STRUCTURES_AND_ALGORITHM\LAB3\LAB3\DEBUG\VC141.PDB
^C:\USERS\ALEX\SOURCE\REPOS\DATA_STRUCTURES_AND_ALGORITHM\LAB3\LAB3\SOURCE.CPP
C:\USERS\ALEX\SOURCE\REPOS\DATA_STRUCTURES_AND_ALGORITHM\LAB3\LAB3\DEBUG\VC141.PDB
