^C:\USERS\ALEX\SOURCE\REPOS\DATA_STRUCTURES_AND_ALGORITHM\LAB3\LAB3\DEBUG\BINTREE.OBJ|C:\USERS\ALEX\SOURCE\REPOS\DATA_STRUCTURES_AND_ALGORITHM\LAB3\LAB3\DEBUG\MY_QUEUE.OBJ|C:\USERS\ALEX\SOURCE\REPOS\DATA_STRUCTURES_AND_ALGORITHM\LAB3\LAB3\DEBUG\MY_STACK.OBJ|C:\USERS\ALEX\SOURCE\REPOS\DATA_STRUCTURES_AND_ALGORITHM\LAB3\LAB3\DEBUG\SOURCE.OBJ
C:\USERS\ALEX\SOURCE\REPOS\DATA_STRUCTURES_AND_ALGORITHM\LAB3\DEBUG\LAB3.EXE
C:\USERS\ALEX\SOURCE\REPOS\DATA_STRUCTURES_AND_ALGORITHM\LAB3\DEBUG\LAB3.ILK
C:\USERS\ALEX\SOURCE\REPOS\DATA_STRUCTURES_AND_ALGORITHM\LAB3\DEBUG\LAB3.PDB
